{
	"code":0,
	"msg":null,
	"data":
	{
		"valid":true,
		"downloadurl":"https://bitbucket.org/hotupdatepublish/RES-BB-OL/raw/master/download",
		"clientversion":"27",
		"resversion":"102",
		"ios_url":"http://bbqp123.com",
		"android_url":"http://bbqp123.com",
		"wxLogon":1,
		"isOpenCard":0,
		"LOGONSERVER":"lgrm3.bbqp5566.com",
		"GAMESERVER":"lgrm3.bbqp5566.com",
		"LOGONPORT":8800,
		"HTTP_URL":"http://lgapi.bbqp123.com",
		"DL_DOMAIN":"www.bbqp123.com",
		"gamelist":[
			{
				"KindID":"6",
				"KindName":"诈金花",
				"TypeID":"0",
				"ModuleName":"yule.zhajinhua",
				"ClientVersion":"101122049",
				"ResVersion":"60",
				"SortID":"3",
				"KindMark":"3"
			},
			{
				"KindID":"89",
				"KindName":"红黑大战",
				"TypeID":"0",
				"ModuleName":"yule.h3card",
				"ClientVersion":"101122049",
				"ResVersion":"60",
				"SortID":"7",
				"KindMark":"3"
			},
			{
				"KindID":"27",
				"KindName":"牛牛",
				"TypeID":"0",
				"ModuleName":"yule.oxnew",
				"ClientVersion":"101122049",
				"ResVersion":"60",
				"SortID":"2",
				"KindMark":"3"
			},
			{
				"KindID":"104",
				"KindName":"百人牛牛",
				"TypeID":"0",
				"ModuleName":"yule.oxbattle",
				"ClientVersion":"101122049",
				"ResVersion":"60",
				"SortID":"1",
				"KindMark":"3"
			},
			{
				"KindID":"120",
				"KindName":"百人二八杠",
				"TypeID":"0",
				"ModuleName":"yule.28gbattle",
				"ClientVersion":"101122049",
				"ResVersion":"60",
				"SortID":"4",
				"KindMark":"3"
			},
			{
				"KindID":"122",
				"KindName":"百家乐",
				"TypeID":"0",
				"ModuleName":"yule.baccaratnew",
				"ClientVersion":"101122049",
				"ResVersion":"61",
				"SortID":"8",
				"KindMark":"3"
			},
			{
				"KindID":"150",
				"KindName":"龙虎斗",
				"TypeID":"0",
				"ModuleName":"yule.dragontiger",
				"ClientVersion":"101122049",
				"ResVersion":"60",
				"SortID":"5",
				"KindMark":"3"
			},
			{
				"KindID":"200",
				"KindName":"斗地主",
				"TypeID":"0",
				"ModuleName":"qipai.land",
				"ClientVersion":"101122049",
				"ResVersion":"59",
				"SortID":"9",
				"KindMark":"3"
			},
			{
				"KindID":"389",
				"KindName":"红中麻将房卡版",
				"TypeID":"0",
				"ModuleName":"yule.sparrowhz",
				"ClientVersion":"101122049",
				"ResVersion":"65",
				"SortID":"6",
				"KindMark":"3"
			},
			{
				"KindID":"601",
				"KindName":"湖南跑得快",
				"TypeID":"0",
				"ModuleName":"yule.runfasthn",
				"ClientVersion":"101122049",
				"ResVersion":"60",
				"SortID":"10",
				"KindMark":"3"
			}]
	}
}